#263 - Upper Silesia

owner = A39
controller = A39
add_core = A39
culture = esmari
religion = regent_court

hre = yes

base_tax = 3
base_production = 5
base_manpower = 2

trade_goods = iron

capital = ""

is_city = yes







