#472 - Zhetyru

owner = F02
controller = F02
add_core = F02
add_core = F01
culture = kheteratan
religion = khetist

hre = no

base_tax = 5
base_production = 2
base_manpower = 3

trade_goods = cloth

capital = ""

is_city = yes









