#55 - Oldenburg

owner = A31
controller = A31
add_core = A31
culture = moon_elf
religion = regent_court

hre = yes

base_tax = 3
base_production = 6
base_manpower = 3

trade_goods = naval_supplies

capital = ""

is_city = yes
fort_15th = yes









