# No previous file for Yanktonai
owner = A98
controller = A98
add_core = A98
add_core = A84
culture = vernman
religion = regent_court

hre = yes

base_tax = 4
base_production = 4
base_manpower = 3

trade_goods = livestock

capital = ""

is_city = yes






